\relax 
\providecommand\hyper@newdestlabel[2]{}
\catcode `:\active 
\catcode `!\active 
\catcode `=\active 
\providecommand\HyperFirstAtBeginDocument{\AtBeginDocument}
\HyperFirstAtBeginDocument{\ifx\hyper@anchor\@undefined
\global\let\oldcontentsline\contentsline
\gdef\contentsline#1#2#3#4{\oldcontentsline{#1}{#2}{#3}}
\global\let\oldnewlabel\newlabel
\gdef\newlabel#1#2{\newlabelxx{#1}#2}
\gdef\newlabelxx#1#2#3#4#5#6{\oldnewlabel{#1}{{#2}{#3}}}
\AtEndDocument{\ifx\hyper@anchor\@undefined
\let\contentsline\oldcontentsline
\let\newlabel\oldnewlabel
\fi}
\fi}
\global\let\hyper@last\relax 
\gdef\HyperFirstAtBeginDocument#1{#1}
\providecommand\HyField@AuxAddToFields[1]{}
\providecommand\HyField@AuxAddToCoFields[2]{}
\select@language{turkish}
\@writefile{toc}{\select@language{turkish}}
\@writefile{lof}{\select@language{turkish}}
\@writefile{lot}{\select@language{turkish}}
\@writefile{toc}{\contentsline {section}{\numberline {1}Eclipse Kurulumu}{3}{section.1}}
\@writefile{toc}{\contentsline {section}{\numberline {2}ARM GNU Eklentisinin Kurulumu}{4}{section.2}}
\@writefile{toc}{\contentsline {section}{\numberline {3}ARM GCC Derleyicisinin Kurulumu}{5}{section.3}}
\@writefile{toc}{\contentsline {subsection}{\numberline {3.1}Eclipse Ayarlar\IeC {\i }}{5}{subsection.3.1}}
\@writefile{toc}{\contentsline {section}{\numberline {4}OpenOCD Kurulumu}{6}{section.4}}
\@writefile{toc}{\contentsline {subsection}{\numberline {4.1}Eclipse Ayarlar\IeC {\i }}{6}{subsection.4.1}}
\@writefile{toc}{\contentsline {section}{\numberline {5}Stlink Ayarlar\IeC {\i }}{8}{section.5}}
\@writefile{toc}{\contentsline {section}{\numberline {6}Proje Olu\IeC {\c s}turma ve Derleme}{11}{section.6}}
\bibdata{bib/IEEEabrv,bib/IEEEreferencias.bib}
\@writefile{toc}{\contentsline {section}{\numberline {7}Opsiyonel Eklentiler}{14}{section.7}}
\@writefile{toc}{\contentsline {section}{Ekler}{15}{section*.2}}
\@writefile{toc}{\contentsline {section}{\numberline {A}Build Path Hatas\IeC {\i }}{15}{appendix.A}}
\newlabel{hata:echo}{{A}{15}{Build Path Hatası}{appendix.A}{}}
\@writefile{toc}{\contentsline {section}{\numberline {B}STM32F4 ile \IeC {\"O}rnek Bir Proje}{15}{appendix.B}}
